{
  "type": "service_account",
  "project_id": "hass-1234",
  "private_key_id": "12e456",
  "private_key": "-----BEGIN PRIVATE KEY-----MYkey-----END PRIVATE KEY-----\n",
  "client_email": "bar@hass-1234.gserviceaccount.com",
  "client_id": "1234567",
  "auth_uri": "https://accounts.google.com/o/oauth2/auth",
  "token_uri": "https://oauth2.googleapis.com/token",
  "auth_provider_x509_cert_url": "https://www.googleapis.com/oauth2/v1/certs",
  "client_x509_cert_url": "https://www.googleapis.com/robot/v1/metadata/x509/bar%40hass-1234.gserviceaccount.com"
}
